[Oct 02,2014 12:27:43] Skalax Reconnect to Sirens Client, New Login Game.
[Oct 02,2014 12:28:09] Skalax Reconnect to Sirens Client, New Login Game.
[Oct 02,2014 12:35:24] Skalax Reconnect to Sirens Client, New Login Game.
[Oct 02,2014 12:36:47] Skalax Reconnect to Sirens Client, New Login Game.
[Oct 02,2014 12:38:03] Skalax Reconnect to Sirens Client, New Login Game.
[Oct 02,2014 12:39:09] Skalax Reconnect to Sirens Client, New Login Game.
[Oct 02,2014 12:40:18] Skalax Reconnect to Sirens Client, New Login Game.
[Oct 02,2014 12:43:15] Skalax Reconnect to Sirens Client, New Login Game.
