1001#Scorpion#16#153#0#108#81#0#4#2#3#
1002#Poring#1#60#0#27#20#1#3#2#1#
1004#Hornet#11#90#0#81#60#0#4#2#4#
1005#Familiar#24#427#0#144#162#0#2#2#7#
1007#Fabre#6#72#0#54#41#0#4#2#2#
1008#Pupa#4#66#0#36#27#0#4#2#2#
1009#Condor#12#114#0#81#60#1#2#2#4#
1010#Willow#8#91#0#63#47#1#3#2#2#
1011#Chonchon#5#57#0#45#36#0#4#2#4#
1012#Roda Frog#13#160#0#90#68#1#5#2#1#
1013#Wolf#45#1219#0#342#386#1#2#2#2#
1014#Spore#18#280#0#117#87#1#3#2#1#
1015#Zombie#17#234#0#117#87#1#1#2#9#
1016#Archer Skeleton#50#1646#0#405#455#1#1#2#9#
1018#Creamy#23#378#0#144#162#0#4#2#4#
1019#Peco Peco#25#446#0#162#183#2#2#2#3#
1020#Mandragora#13#156#0#97#73#1#3#6#2#
1023#Orc Warrior#44#1434#0#350#540#1#7#2#2#
1024#Wormtail#17#200#0#117#87#1#3#2#2#
1025#Boa#18#217#0#117#87#1#2#2#2#
1026#Munak#58#2445#0#495#557#1#1#2#9#
1028#Soldier Skeleton#34#804#0#216#243#1#1#2#9#
1029#Isis#59#2092#0#531#597#2#6#2#7#
1030#Anacondaq#100#8510#0#1602#1202#1#2#2#5#
1031#Poporing#30#524#0#198#224#1#3#2#5#
1032#Verit#52#1944#0#414#467#1#1#2#9#
1033#Elder Willow#34#599#0#233#263#1#3#4#3#
1034#Thara Frog#40#1157#0#311#350#1#5#4#1#
1035#Hunter Fly#63#2050#0#604#681#0#4#4#4#
1036#Ghoul#61#2614#0#583#656#1#1#4#9#
1037#Side Winder#70#2736#0#720#810#1#2#2#5#
1038#Osiris#68#475840#0#245520#200880#1#1#8#9#
1039#Baphomet#81#668000#0#396525#334106#2#6#6#7#
1040#Golem#61#2245#0#540#608#2#0#6#0#
1041#Mummy#55#2155#0#486#548#1#1#4#9#
1042#Steel Chonchon#48#1199#0#369#414#0#4#2#4#
1044#Obeaune#53#2158#0#476#534#1#5#4#1#
1045#Marc#56#2522#0#525#590#1#5#4#1#
1046#Doppelganger#77#380000#0#313200#250560#1#6#6#7#
1047#Peco Peco Egg#7#75#0#54#41#0#0#6#0#
1048#Thief Bug Egg#20#344#0#126#143#0#4#2#7#
1049#Picky#9#95#0#63#47#0#2#2#3#
1050#Picky#10#89#0#72#54#0#2#2#3#
1051#Thief Bug#21#354#0#126#143#0#4#6#0#
1052#Rocker#15#185#0#99#74#1#4#2#2#
1053#Thief Bug Female#28#531#0#180#203#1#4#2#7#
1054#Thief Bug Male#30#595#0#198#224#1#4#2#7#
1055#Muka#23#468#0#144#162#2#3#2#2#
1056#Smokie#29#591#0#180#203#0#2#2#2#
1057#Yoyo#38#898#0#270#305#0#2#2#2#
1058#Metaller#55#1687#0#450#507#1#4#2#3#
1059#Mistress#78#378000#0#368280#301320#0#4#8#4#
1060#Bigfoot#29#587#0#180#203#2#2#2#2#
1061#Nightmare#69#2872#0#501#1032#2#6#6#8#
1062#Santa Poring#3#69#0#4#5#1#3#2#6#
1063#Lunatic#3#55#0#36#27#0#2#6#0#
1064#Megalodon#46#1335#0#342#386#1#1#2#9#
1065#Strouf#61#3052#0#626#705#2#5#6#1#
1066#Vadon#45#1252#0#342#386#0#5#2#1#
1067#Cornutus#48#1450#0#369#414#0#5#2#1#
1068#Hydra#34#854#0#233#263#0#3#4#1#
1069#Swordfish#57#2600#0#525#590#2#5#4#1#
1070#Kukre#42#1111#0#315#354#0#5#2#1#
1071#Pirate Skeleton#48#1411#0#369#414#1#1#2#9#
1072#Kaho#98#7045#0#1953#1463#1#6#8#3#
1073#Crab#43#1233#0#315#354#0#5#2#1#
1074#Shellfish#50#1680#0#405#455#0#5#2#1#
1075#Turtle#3#77#0#0#0#0#5#2#2#
1076#Skeleton#27#612#0#162#183#1#1#2#9#
1077#Poison Spore#26#456#0#162#183#1#3#2#5#
1078#Red Plant#1#10#0#0#0#0#3#2#2#
1079#Blue Plant#1#10#0#0#0#0#3#2#2#
1080#Green Plant#1#10#0#0#0#0#3#2#2#
1081#Yellow Plant#1#10#0#0#0#0#3#2#2#
1082#White Plant#1#10#0#0#0#0#3#2#2#
1083#Shining Plant#1#20#0#0#0#0#3#2#6#
1084#Black Mushroom#1#15#0#0#0#0#3#2#2#
1085#Red Mushroom#1#15#0#0#0#0#3#2#2#
1086#Golden Thief Bug#65#222750#0#194400#155520#2#4#4#3#
1087#Orc Hero#50#362000#0#106920#97200#2#7#4#2#
1088#Vocal#18#3317#0#99#79#1#4#2#2#
1089#Toad#27#660#0#162#183#1#5#2#1#
1090#Mastering#42#1260#0#315#354#1#3#2#1#
1091#Dragon Fly#47#1035#0#360#405#0#4#2#4#
1092#Vagabond Wolf#93#8203#0#1422#2601#1#2#2#2#
1093#Eclipse#31#625#0#207#233#1#2#6#0#
1094#Ambernite#19#340#0#117#87#2#4#2#1#
1095#Andre#33#724#0#216#243#0#4#2#2#
1096#Angeling#77#19800#0#3060#2693#1#8#8#6#
1097#Ant Egg#28#530#0#180#203#0#0#6#0#
1098#Anubis#105#18825#0#3356#2450#2#7#4#9#
1099#Argiope#75#3105#0#810#912#2#4#2#5#
1100#Argos#47#1005#0#360#405#2#4#2#5#
1101#Baphomet Jr.#57#2035#0#486#548#0#6#2#7#
1102#Bathory#86#5242#0#1170#1364#1#7#2#7#
1103#Caramel#25#518#0#162#183#0#2#2#2#
1104#Coco#38#836#0#270#305#0#2#2#2#
1105#Deniro#31#671#0#207#233#0#4#2#2#
1106#Desert Wolf#103#9447#0#1800#1350#1#2#2#3#
1107#Baby Desert Wolf#14#140#0#90#68#0#2#2#3#
1108#Deviace#60#3135#0#658#740#1#5#8#1#
1109#Deviruchi#93#8912#0#1806#2166#0#6#2#7#
1110#Dokebi#68#2820#0#675#759#0#6#2#7#
1111#Drainliar#47#1162#0#389#438#0#2#4#7#
1112#Drake#91#804500#0#515160#417960#1#1#2#9#
1113#Drops#2#45#0#27#20#1#3#2#3#
1114#Dustiness#62#2026#0#602#678#0#4#4#4#
1115#Eddga#65#247500#0#198000#148500#2#2#2#3#
1116#Eggyra#53#1676#0#330#689#1#0#4#8#
1117#Evil Druid#80#5149#0#1339#1280#2#1#8#9#
1118#Flora#59#2301#0#531#597#2#3#2#2#
1119#Frilldora#57#1821#0#486#548#1#2#2#3#
1120#Ghostring#90#26700#0#4305#4467#1#6#8#8#
1121#Giearth#42#1118#0#315#354#0#6#2#2#
1122#Goblin#48#1058#0#369#414#1#7#2#4#
1123#Goblin#44#931#0#333#374#1#7#2#3#
1124#Goblin#44#930#0#333#374#1#7#2#5#
1125#Goblin#49#1494#0#396#446#1#7#2#2#
1126#Goblin#56#2342#0#486#548#1#7#2#1#
1127#Hode#63#2676#0#632#710#1#2#4#2#
1128#Horn#32#705#0#216#243#1#4#2#2#
1129#Horong#66#2304#0#781#879#0#0#8#3#
1130#Jakk#63#2054#0#632#710#1#0#4#3#
1131#Joker#90#6022#0#1618#1821#2#7#8#4#
1132#Khalitzburg#118#23986#0#2862#2147#2#1#2#9#
1133#Kobold#107#10483#0#2274#1706#1#7#4#4#
1134#Kobold#102#9152#0#1944#1458#1#7#4#5#
1135#Kobold#101#9078#0#1827#1371#1#7#4#3#
1138#Magnolia#53#1984#0#441#495#0#6#2#1#
1139#Mantis#65#2719#0#594#669#1#4#2#2#
1140#Marduk#73#2893#0#774#872#2#7#2#3#
1141#Marina#42#1209#0#340#381#0#3#4#1#
1142#Marine Sphere#51#1924#0#446#503#0#3#4#1#
1143#Marionette#90#7166#0#1442#2009#0#6#6#8#
1144#Marse#47#1456#0#389#438#0#5#4#1#
1145#Martin#39#1056#0#311#350#0#2#4#2#
1146#Matyr#58#2087#0#495#557#1#2#2#7#
1147#Maya#55#380000#0#178560#133920#2#4#8#2#
1148#Medusa#102#10045#0#1737#1302#1#6#4#0#
1149#Minorous#58#1893#0#544#602#2#2#4#3#
1150#Moonlight Flower#79#324000#0#334080#271440#1#6#6#3#
1151#Myst#49#1223#0#396#446#2#0#2#5#
1152#Orc Skeleton#53#2077#0#459#524#1#1#2#9#
1153#Orc Zombie#51#1908#0#430#498#1#1#2#9#
1154#Pasana#79#3510#0#972#1194#1#7#4#3#
1155#Petite#86#5799#0#1170#1317#1#9#2#2#
1156#Petite#79#3556#0#900#1013#1#9#2#4#
1157#Pharaoh#85#500000#0#417600#334080#2#7#6#7#
1158#Phen#52#1963#0#446#503#1#5#4#1#
1159#Phreeoni#71#300000#0#116000#180000#2#2#6#0#
1160#Piere#32#696#0#216#243#0#4#2#2#
1161#Plankton#40#1232#0#334#375#0#3#6#1#
1162#Rafflesia#86#5819#0#1170#1317#0#3#2#2#
1163#Raydric#115#18408#0#2770#2076#2#7#4#7#
1164#Requiem#71#3089#0#738#831#1#7#2#7#
1165#Sandman#61#2887#0#626#705#1#0#6#2#
1166#Savage#59#2301#0#573#644#2#2#4#2#
1167#Savage Babe#14#180#0#90#68#0#2#2#2#
1169#Skeleton Worker#44#1240#0#333#374#1#1#2#9#
1170#Sohee#64#2875#0#594#669#1#6#2#1#
1174#Stainer#21#365#0#126#143#0#4#2#4#
1175#Tarou#22#420#0#135#152#0#2#2#7#
1176#Vitata#35#756#0#234#264#0#4#2#2#
1177#Zenorc#54#1816#0#450#507#1#7#2#7#
1178#Zerom#70#2687#0#720#960#1#7#2#3#
1179#Whisper#46#1109#0#242#513#0#6#6#8#
1180#Nine Tail#72#2783#0#887#998#1#2#6#3#
1182#Thief Mushroom#1#15#0#0#0#0#3#2#2#
1183#Chonchon#4#67#0#5#4#0#4#2#4#
1184#Fabre#1#30#0#1#0#0#4#2#2#
1185#Whisper#34#1796#0#483#737#0#1#2#8#
1186#Giant Whisper#66#2570#0#630#710#0#6#4#8#
1187#Switch#1#2#0#1#1#1#0#2#0#
1188#Bongun#59#2510#0#531#597#1#1#2#9#
1189#Orc Archer#78#4835#0#992#1161#1#7#2#2#
1190#Orc Lord#55#552000#0#156240#122760#2#7#8#2#
1191#Mimic#56#1939#182#486#548#1#0#6#0#
1192#Wraith#77#5168#0#1190#1191#2#1#8#9#
1193#Alarm#88#5562#0#1242#1398#1#0#6#0#
1194#Arclouze#107#10020#0#1844#2607#1#4#4#2#
1195#Rideword#74#3222#0#810#1212#0#0#6#0#
1196#Skeleton Prisoner#91#9194#0#1566#1763#1#1#6#9#
1197#Zombie Prisoner#89#8045#0#1458#1647#1#1#6#9#
1198#Dark Priest#98#12090#0#2430#1667#1#6#8#9#
1199#Punk#82#3869#0#972#1094#0#3#2#4#
1200#Zealotus#105#61350#0#6944#6458#1#7#6#0#
1201#Rybio#98#8700#0#1575#1442#2#6#4#0#
1202#Phendark#102#11000#0#1990#1302#2#7#4#0#
1203#Mysteltainn#130#70000#0#7919#4987#2#0#8#7#
1204#Ogretooth#114#59000#0#5345#5009#1#0#6#7#
1205#Executioner#101#40200#0#4860#3645#2#0#4#7#
1206#Anolian#109#15547#0#2930#2223#1#5#4#1#
1207#Sting#104#10143#0#2172#1629#1#0#6#2#
1208#Wanderer#120#19307#0#3389#2466#1#6#2#4#
1209#Cramp#82#3898#0#972#1094#0#2#4#5#
1211#Brilight#71#2772#0#738#831#0#4#2#3#
1212#Iron Fist#47#4221#0#1435#1520#1#4#6#0#
1213#High Orc#81#4193#0#1099#1158#2#7#4#3#
1214#Choco#48#1080#0#369#414#0#2#2#3#
1215#Stem Worm#84#4530#0#1080#1215#1#3#2#4#
1216#Penomena#85#4589#0#1116#1556#1#5#2#5#
1219#Abysmal Knight#122#23297#0#4779#4013#2#7#8#7#
1220#Desert Wolf#27#1716#0#388#242#1#2#2#3#
1221#Savage#26#2092#0#357#226#2#2#4#2#
1242#Marin#37#987#0#282#317#1#3#4#1#
1243#Sasquatch#72#3163#0#765#860#2#2#6#0#
1245#Christmas Goblin#25#1176#0#282#171#1#7#2#4#
1246#Christmas Cookie#37#733#0#282#317#0#7#4#6#
1247#Antonio#10#10#0#3#2#1#3#6#6#
1248#Cruiser#41#919#0#288#324#1#0#6#0#
1249#Myst Case#39#879#0#288#324#1#0#6#0#
1250#Chepet#42#4950#0#1315#1854#1#7#2#3#
1251#Stormy Knight#92#630500#0#413800#302200#2#0#8#4#
1252#Garm#98#1275500#0#758880#613800#2#2#8#1#
1253#Gargoyle#100#8772#0#1900#1425#1#6#6#4#
1254#Raggler#48#1148#0#369#414#0#2#2#4#
1255#Nereid#98#9550#0#1575#1181#0#2#2#2#
1256#Pest#89#5747#0#1341#1509#0#2#4#7#
1257#Injustice#95#7952#0#1574#1997#1#1#4#7#
1258#Goblin Archer#55#1575#0#450#507#0#7#2#5#
1259#Gryphon#105#60720#0#9410#5808#2#2#8#4#
1260#Dark Frame#76#3520#0#992#1115#1#6#6#7#
1261#Wild Rose#70#2682#0#720#1110#0#2#2#4#
1262#Mutant Dragonoid#65#50706#0#3644#12830#2#9#4#3#
1263#Wind Ghost#80#4008#0#918#1334#1#6#6#4#
1264#Merman#60#2940#0#616#692#1#7#6#1#
1265#Cookie#35#666#0#234#264#0#7#6#0#
1266#Aster#50#1509#0#405#455#0#5#2#2#
1267#Carat#103#9222#0#1944#1458#1#6#4#4#
1268#Bloody Knight#116#68500#0#7348#6511#2#0#8#7#
1269#Clock#81#5556#0#1231#1158#1#0#4#2#
1270#Clock Tower Manager#90#6400#0#1305#1467#2#0#8#0#
1271#Alligator#57#2430#0#486#548#1#2#2#1#
1272#Dark Lord#96#1190900#0#714240#558000#2#6#8#9#
1273#Orc Lady#45#1520#0#380#435#1#7#4#2#
1274#Megalith#65#2451#0#594#669#2#0#8#0#
1275#Alice#100#9230#221#1630#1222#1#7#6#0#
1276#Raydric Archer#82#4437#0#1049#1332#1#6#4#7#
1277#Greatest General#55#1575#0#486#548#1#0#4#3#
1278#Stalactic Golem#68#2590#0#675#759#2#0#8#0#
1279#Tri Joint#66#2530#0#347#297#0#4#2#2#
1280#Goblin Steamrider#66#2241#0#680#765#1#7#4#4#
1281#Sage Worm#70#2872#0#720#810#0#2#6#0#
1282#Kobold Archer#108#11053#0#2160#2620#0#7#2#3#
1283#Chimera#70#26406#0#5168#4698#2#2#6#3#
1285#Archer Guardian#74#28634#0#1#1#2#7#8#0#
1286#Knight Guardian#86#30214#0#1#1#2#7#8#0#
1287#Soldier Guardian#56#15670#0#1#1#0#4#2#2#
1288#Emperium#90#700#0#0#0#0#8#2#6#
1289#Maya Purple#81#77670#0#11714#6516#2#4#8#2#
1290#Skeleton General#88#6720#0#1368#1553#1#1#2#9#
1291#Wraith Dead#86#10035#0#2518#1824#2#1#8#9#
1292#Mini Demon#117#19402#0#2700#2025#0#6#2#7#
1293#Creamy Fear#77#3420#0#945#1067#0#4#2#4#
1294#Killer Mantis#91#7650#0#1485#1674#1#4#2#2#
1295#Owl Baron#120#21000#0#3042#2282#2#6#6#0#
1296#Kobold Leader#112#13520#0#2643#2383#1#7#4#4#
1297#Ancient Mummy#114#27157#0#4104#3199#1#1#4#9#
1298#Zombie Master#92#8780#0#1710#1857#1#1#2#9#
1299#Goblin Leader#55#21692#0#4450#5007#1#7#2#4#
1300#Caterpillar#84#5555#0#1312#1487#0#4#2#2#
1301#Am Mut#76#3530#0#945#1067#0#6#2#7#
1302#Dark Illusion#96#29255#0#4091#4099#2#6#8#9#
1303#Giant Hornet#82#3960#0#1080#1215#0#4#2#4#
1304#Giant Spider#85#4680#0#1242#1418#2#4#2#5#
1305#Ancient Worm#83#4140#0#1139#1283#2#4#2#5#
1306#Leib Olmai#87#6050#0#1314#1485#2#2#2#2#
1307#Cat o' Nine Tails#79#23600#0#4148#5792#1#6#6#3#
1308#Panzer Goblin#52#1471#0#446#504#1#7#4#4#
1309#Gajomart#81#3825#0#1317#1490#0#0#8#3#
1310#Majoruros#107#11801#0#3090#2200#2#2#4#3#
1311#Gullinbursti#89#7080#0#1478#1677#2#2#4#2#
1312#Turtle General#110#1442000#0#933120#748440#2#2#4#2#
1313#Mobster#58#2253#0#495#557#1#7#2#0#
1314#Permeter#90#6575#0#1305#1467#1#2#4#0#
1315#Assaulter#100#8977#0#1992#1779#1#7#4#4#
1316#Solider#92#8768#0#1487#1671#1#2#4#2#
1317#Seal#47#1371#0#360#405#1#2#2#1#
1318#Heater#98#8180#0#1893#1611#1#2#4#3#
1319#Freezer#94#9990#0#1555#1749#1#2#4#1#
1320#Owl Duke#92#7381#0#1377#1953#2#6#6#0#
1321#Dragon Tail#61#4680#0#1264#1422#1#4#4#4#
1322#Spring Rabbit#88#6684#0#1341#1509#1#2#4#2#
1323#Sea Otter#48#1820#0#428#480#1#2#6#1#
1324#Treasure Chest#99#0#0#0#0#0#0#2#0#
1325#Treasure Chest#99#0#0#0#0#0#0#2#0#
1326#Treasure Chest#99#0#0#0#0#0#0#2#0#
1327#Treasure Chest#99#0#0#0#0#0#0#2#0#
1328#Treasure Chest#99#0#0#0#0#0#0#2#0#
1329#Treasure Chest#99#0#0#0#0#0#0#2#0#
1330#Treasure Chest#99#0#0#0#0#0#0#2#0#
1331#Treasure Chest#99#0#0#0#0#0#0#2#0#
1332#Treasure Chest#99#0#0#0#0#0#0#2#0#
1333#Treasure Chest#99#0#0#0#0#0#0#2#0#
1334#Treasure Chest#99#0#0#0#0#0#0#2#0#
1335#Treasure Chest#99#0#0#0#0#0#0#2#0#
1336#Treasure Chest#99#0#0#0#0#0#0#2#0#
1337#Treasure Chest#99#0#0#0#0#0#0#2#0#
1338#Treasure Chest#99#0#0#0#0#0#0#2#0#
1339#Treasure Chest#99#0#0#0#0#0#0#2#0#
1340#Treasure Chest#99#0#0#0#0#0#0#2#0#
1341#Treasure Chest#99#0#0#0#0#0#0#2#0#
1342#Treasure Chest#99#0#0#0#0#0#0#2#0#
1343#Treasure Chest#99#0#0#0#0#0#0#2#0#
1344#Treasure Chest#99#0#0#0#0#0#0#2#0#
1345#Treasure Chest#99#0#0#0#0#0#0#2#0#
1346#Treasure Chest#99#0#0#0#0#0#0#2#0#
1347#Treasure Chest#99#0#0#0#0#0#0#2#0#
1348#Treasure Chest#99#0#0#0#0#0#0#2#0#
1349#Treasure Chest#99#0#0#0#0#0#0#2#0#
1350#Treasure Chest#99#0#0#0#0#0#0#2#0#
1351#Treasure Chest#99#0#0#0#0#0#0#2#0#
1352#Treasure Chest#99#0#0#0#0#0#0#2#0#
1353#Treasure Chest#99#0#0#0#0#0#0#2#0#
1354#Treasure Chest#99#0#0#0#0#0#0#2#0#
1355#Treasure Chest#99#0#0#0#0#0#0#2#0#
1356#Treasure Chest#99#0#0#0#0#0#0#2#0#
1357#Treasure Chest#99#0#0#0#0#0#0#2#0#
1358#Treasure Chest#99#0#0#0#0#0#0#2#0#
1359#Treasure Chest#99#0#0#0#0#0#0#2#0#
1360#Treasure Chest#99#0#0#0#0#0#0#2#0#
1361#Treasure Chest#99#0#0#0#0#0#0#2#0#
1362#Treasure Chest#99#0#0#0#0#0#0#2#0#
1363#Treasure Chest#99#0#0#0#0#0#0#2#0#
1364#Assaulter#98#7798#0#0#0#1#6#4#4#
1365#Apocalypse#121#22090#0#3042#2282#2#0#6#0#
1366#Lava Golem#103#8452#0#2232#1674#2#0#8#3#
1367#Blazer#101#8121#0#1827#1371#1#6#4#3#
1368#Geographer#73#3866#0#898#1010#1#3#6#2#
1369#Grand Peco#75#3150#0#887#998#2#2#4#3#
1370#Succubus#119#24960#0#3924#3489#1#6#6#7#
1371#False Angel#105#10988#0#2100#1570#0#8#6#6#
1372#Goat#80#3980#0#1065#1197#1#2#6#3#
1373#Lord of the Dead#94#603883#0#437121#345252#2#6#6#7#
1374#Incubus#120#28000#0#3928#3646#1#6#6#7#
1375#The Paper#97#8500#0#1530#1148#1#0#6#0#
1376#Harpy#83#4423#0#1201#1349#1#6#6#4#
1377#Elder#92#7341#0#1377#2898#2#7#8#0#
1378#Demon Pungus#91#6466#0#1350#1520#0#6#6#5#
1379#Nightmare Terror#107#13289#0#2443#1832#2#6#6#7#
1380#Driller#65#2719#0#594#669#1#2#2#2#
1381#Grizzly#66#2241#0#731#822#2#2#6#3#
1382#Diabolic#104#10572#0#2172#1629#0#6#4#7#
1383#Explosion#100#7813#0#1900#1425#0#2#6#3#
1384#Deleter#105#10000#0#2099#1574#1#9#4#3#
1385#Deleter#105#10000#0#2099#1574#1#9#4#3#
1386#Sleeper#81#5160#0#1034#1160#1#0#4#2#
1387#Gig#100#8721#0#1769#1327#0#2#4#3#
1388#Arc Angeling#84#25100#0#3253#2910#1#8#6#6#
1389#Dracula#75#350000#0#312480#245520#2#6#8#7#
1390#Violy#118#20557#0#2862#2147#1#7#4#0#
1391#Galapago#45#1221#0#342#386#0#2#2#2#
1392#Rotar Zairo#48#1088#0#399#449#2#0#4#4#
1393#Mummy#37#5176#0#0#0#1#1#4#9#
1394#Zombie#15#534#0#0#0#1#1#2#9#
1399#Baphomet#68#1264000#0#261750#83685#2#6#6#7#
1400#Karakasa#72#3092#0#765#860#1#0#6#0#
1401#Shinobi#95#8000#0#1691#1902#1#7#6#7#
1402#Poison Toad#87#4876#0#1341#1509#1#2#4#5#
1403#Firelock Soldier#88#7524#0#1352#1512#1#1#4#9#
1404#Miyabi Doll#85#5188#0#1116#1256#1#6#2#7#
1405#Tengu#98#10196#0#1701#1275#2#6#4#2#
1406#Kapha#83#5470#0#1035#1164#1#5#2#1#
1408#Bloody Butterfly#94#7030#0#1555#1749#1#4#4#4#
1409#Dumpling Child#60#2098#0#531#597#0#7#2#0#
1410#Enchanted Peach Tree#92#8777#0#1499#1724#1#3#4#2#
1412#Taoist Hermit#96#8266#0#1503#1127#2#0#4#0#
1413#Hermit Plant#90#6052#0#1409#1586#0#3#4#3#
1415#Baby Leopard#68#2590#0#500#1016#0#2#2#8#
1416#Evil Nymph#97#8491#0#1775#1331#1#6#6#7#
1417#Zipper Bear#90#6620#0#1305#1467#1#2#2#7#
1418#Evil Snake Lord#105#1101000#0#720000#630000#2#2#6#8#
1419#Familiar#24#427#0#0#0#0#2#2#7#
1420#Archer Skeleton#31#3040#0#0#0#1#1#2#9#
1421#Isis#43#4828#0#0#0#2#6#2#7#
1422#Hunter Fly#42#5242#0#0#0#0#4#4#4#
1423#Ghoul#39#5118#0#0#0#1#1#4#9#
1424#Side Winder#43#4929#0#0#0#1#2#2#5#
1425#Obeaune#31#3952#0#0#0#1#5#4#1#
1426#Marc#36#6900#0#0#0#1#5#4#1#
1427#Nightmare#69#2872#0#0#0#2#6#6#8#
1428#Poison Spore#19#665#0#0#0#1#3#2#5#
1429#Argiope#41#4382#0#0#0#2#4#2#5#
1430#Argos#25#1117#0#0#0#2#4#2#5#
1431#Baphomet Jr.#57#2035#0#0#0#0#6#2#7#
1432#Desert Wolf#27#1716#0#0#0#1#2#2#3#
1433#Deviruchi#64#2300#0#0#0#0#6#2#7#
1434#Drainliar#24#1162#0#0#0#0#2#4#7#
1435#Evil Druid#58#16506#0#0#0#2#1#8#9#
1436#Jakk#38#3581#0#0#0#1#0#4#3#
1437#Joker#57#12450#0#0#0#2#7#8#4#
1438#Khalitzburg#63#19276#0#0#0#2#1#2#9#
1439#High Orc#81#4193#0#0#0#2#7#4#3#
1440#Stem Worm#40#6136#0#0#0#1#3#2#4#
1441#Penomena#57#7256#0#0#0#1#5#2#5#
1442#Sasquatch#30#3163#0#0#0#2#2#6#0#
1443#Cruiser#41#919#0#0#0#1#0#6#0#
1444#Chepet#42#4950#0#0#0#1#7#2#3#
1445#Raggler#21#1020#0#0#0#0#2#2#4#
1446#Injustice#51#7600#0#0#0#1#1#4#7#
1447#Gryphon#72#27800#0#0#0#2#2#8#4#
1448#Dark Frame#59#7500#0#0#0#1#6#6#7#
1449#Mutant Dragonoid#65#62600#0#0#0#2#9#4#3#
1450#Wind Ghost#51#4820#0#0#0#1#6#6#4#
1451#Merman#53#12300#0#0#0#1#7#4#1#
1452#Orc Lady#31#2000#0#0#0#1#7#4#2#
1453#Raydric Archer#52#5250#0#0#0#1#6#4#7#
1454#Tri Joint#32#2300#0#0#0#0#4#2#2#
1455#Kobold Archer#33#2560#0#0#0#0#7#2#3#
1456#Chimera#70#32600#0#0#0#2#2#6#3#
1457#Mantis#26#2472#0#0#0#1#4#2#2#
1458#Marduk#73#2893#0#0#0#2#7#2#3#
1459#Marionette#41#3222#0#0#0#0#6#6#8#
1460#Matyr#31#2585#0#0#0#1#2#2#7#
1461#Minorous#52#7431#0#0#0#2#2#4#3#
1462#Orc Skeleton#28#2278#0#0#0#1#1#2#9#
1463#Orc Zombie#24#1568#0#0#0#1#1#2#9#
1464#Pasana#79#3510#0#0#0#1#7#4#3#
1465#Petite#44#6881#0#0#0#1#9#2#2#
1466#Petite#45#5747#0#0#0#1#9#2#4#
1467#Raydric#52#8613#0#0#0#2#7#4#7#
1468#Requim#35#3089#0#0#0#1#7#2#7#
1469#Skeleton Worker#30#2872#0#0#0#1#1#2#9#
1470#Zerom#23#1109#0#0#0#1#7#2#3#
1471#Nine Tail#72#2783#0#0#0#1#2#6#3#
1472#Bongun#32#3520#0#0#0#1#1#2#9#
1473#Orc Archer#78#4835#0#0#0#1#7#2#2#
1474#Mimic#51#6120#0#0#0#1#0#6#0#
1475#Wraith#53#10999#0#0#0#2#1#8#9#
1476#Alarm#58#10647#0#0#0#1#0#6#0#
1477#Arclouze#77#4320#0#0#0#1#4#4#2#
1478#Rideword#59#11638#0#0#0#0#0#6#0#
1479#Skeleton Prisoner#52#8691#0#0#0#1#1#6#9#
1480#Zombie Prisoner#53#11280#0#0#0#1#1#6#9#
1481#Punk#43#3620#0#0#0#0#3#2#4#
1482#Zealotus#63#18300#0#0#0#1#7#6#0#
1483#Rybio#71#9572#0#0#0#2#6#4#0#
1484#Phendark#73#22729#0#0#0#2#7#4#0#
1485#Mysteltainn#76#33350#0#0#0#2#0#8#7#
1486#Ogretooth#71#29900#0#0#0#1#0#6#7#
1487#Executioner#65#28980#0#0#0#2#0#4#7#
1488#Anolian#63#18960#0#0#0#1#5#4#1#
1489#Sting#61#9500#0#0#0#1#0#6#2#
1490#Wanderer#120#19307#0#0#0#1#6#2#4#
1491#Dokebi#68#2820#0#0#0#0#6#2#7#
1492#Samurai Specter#100#901000#0#751680#595080#2#7#6#7#
1493#Dryad#68#3640#0#837#939#1#3#8#2#
1494#Beetle King#55#2061#0#450#507#0#4#2#2#
1495#Stone Shooter#64#2101#0#689#776#1#3#6#3#
1497#Wooden Golem#72#3914#0#950#1079#2#3#8#2#
1498#Wootan Shooter#67#3096#0#711#798#1#7#4#2#
1499#Wootan Fighter#67#2327#0#709#798#1#7#4#3#
1500#Parasite#76#3222#0#923#1337#1#3#4#4#
1502#Bring it on!#99#95000000#0#87250#27895#1#3#2#5#
1503#Gibbet#105#12999#0#1944#1458#2#6#2#7#
1504#Dullahan#108#18546#0#2509#1977#1#1#4#9#
1505#Loli Ruri#109#15280#0#2790#2093#2#6#8#7#
1506#Disguise#103#13895#180#2232#1674#1#6#8#2#
1507#Bloody Murderer#110#14099#0#2724#2244#2#7#6#7#
1508#Quve#100#11090#0#1638#1229#0#1#2#9#
1509#Lude#101#11574#0#1692#1269#0#1#2#9#
1510#Heirozoist#102#12000#0#1876#1406#0#6#4#7#
1511#Amon Ra#69#319000#0#240120#187920#2#7#6#2#
1512#Yao Jun#87#6996#0#1283#1445#1#1#4#9#
1513#Mao Guai#89#5292#0#1349#1512#1#2#4#4#
1514#Zhu Po Long#82#3943#0#972#1094#1#9#4#4#
1515#Garm Baby#94#10016#0#1555#1749#1#2#4#1#
1516#Mi Gao#83#5335#0#1201#1529#1#0#6#2#
1517#Jing Guai#80#5187#0#1065#1197#1#6#6#2#
1518#White Lady#72#56380#0#5590#1659#2#7#4#1#
1519#Green Maiden#82#3901#0#1049#1481#1#7#4#0#
1520#Boiled Rice#15#400#0#84#45#1#3#2#1#
1521#Alice#62#10000#0#0#0#1#7#6#0#
1522#Ancient Mummy#115#29157#0#0#0#1#1#4#9#
1523#Firelock Soldier#47#3852#0#0#0#1#1#4#9#
1524#Baby Leopard#32#2590#0#0#0#0#2#2#8#
1525#Bathory#44#5415#0#0#0#1#7#2#7#
1526#Bloody Butterfly#55#8082#0#0#0#1#4#4#4#
1527#Clock Tower Manager#63#18600#0#0#0#2#0#8#0#
1528#Clock#60#11050#0#0#0#1#0#4#2#
1529#Evil Snake Lord#73#254993#0#0#0#2#2#6#8#
1530#Dracula#85#320096#0#0#0#2#6#8#7#
1531#Taoist Hermit#96#8266#0#0#0#2#0#4#0#
1532#Explosion#46#8054#0#0#0#0#2#6#3#
1533#Seal#63#9114#0#0#0#1#2#2#1#
1534#Goblin#25#1176#0#0#0#1#7#2#4#
1535#Goblin#24#1034#0#0#0#1#7#2#3#
1536#Goblin#24#1034#0#0#0#1#7#2#5#
1537#Goblin#23#1359#0#0#0#1#7#2#2#
1538#Goblin#22#1952#0#0#0#1#7#2#1#
1539#Goblin Leader#64#20152#0#0#0#1#7#2#4#
1540#Golem#25#3900#0#0#0#2#0#6#0#
1541#Greatest General#40#3632#0#0#0#1#0#4#3#
1542#Incantation Samurai#71#218652#0#0#0#2#7#6#7#
1543#Kapha#41#7892#0#0#0#1#5#2#1#
1544#Karakasa#30#3092#0#0#0#1#0#6#0#
1545#Kobold#36#3893#0#0#0#1#7#4#4#
1546#Kobold#31#2179#0#0#0#1#7#4#5#
1547#Kobold#31#2179#0#0#0#1#7#4#3#
1548#Kobold Leader#65#18313#0#0#0#1#7#4#4#
1549#Lava Golem#77#24324#0#0#0#2#0#8#3#
1550#Enchanted Peach Tree#53#8905#0#0#0#1#3#4#2#
1551#Marse#31#5034#0#0#0#0#5#4#1#
1552#Miyabi Doll#33#6300#0#0#0#1#6#2#7#
1553#Myst#38#3745#0#0#0#2#0#2#5#
1554#Nightmare Terror#78#22605#0#0#0#2#6#6#7#
1555#Parasite#49#5188#0#0#0#1#3#4#4#
1556#Poisonous Toad#46#6629#0#0#0#1#2#4#5#
1557#Rotar Zairo#25#1209#0#0#0#2#0#4#4#
1558#Sandman#61#2887#0#0#0#1#0#6#2#
1559#Scorpion#24#1109#0#0#0#0#4#2#3#
1560#Shinobi#95#8000#0#0#0#1#7#6#7#
1561#Smokie#18#641#0#0#0#0#2#2#2#
1562#Soldier Skeleton#29#2334#0#0#0#1#1#2#9#
1563#Tengu#65#16940#0#0#0#2#6#4#2#
1564#Evil Nymph#97#8491#0#0#0#1#6#6#7#
1565#Hermit Plant#46#6900#0#0#0#0#3#4#3#
1566#Wraith Dead#86#10035#0#0#0#2#1#8#9#
1567#Ancient Worm#67#22598#0#0#0#2#4#2#5#
1568#Angeling#20#55000#0#0#0#1#8#8#6#
1569#Bloody Knight#82#57870#0#0#0#2#0#8#7#
1570#Cramp#82#3898#0#0#0#0#2#4#5#
1571#Deviace#47#19192#0#0#0#1#5#8#1#
1572#Drops#3#55#0#0#0#1#3#2#3#
1573#Elder#64#21592#0#0#0#2#7#8#0#
1574#Elder Willow#20#693#0#0#0#1#3#4#3#
1575#Flora#26#2092#0#0#0#2#3#2#2#
1576#Ghostring#18#73300#0#0#0#1#6#8#8#
1577#Goblin Archer#28#1750#0#0#0#0#7#2#5#
1578#Horong#34#1939#0#0#0#0#0#8#3#
1579#Hydra#14#660#0#0#0#0#3#4#1#
1580#Incubus#75#17281#0#0#0#1#6#6#7#
1581#Vocal#18#3016#0#0#0#1#4#2#2#
1582#Deviling#66#16890#0#2281#2379#1#6#8#7#
1583#Tao Gunka#110#1252000#0#900000#720000#2#6#6#0#
1584#Tamruan#73#3195#0#898#1010#2#6#6#7#
1585#Mime Monkey#40#6000#0#200#22#1#3#2#1#
1586#Leaf Cat#64#2635#0#594#669#0#2#2#2#
1587#Kraben#70#2901#0#510#1095#1#0#4#8#
1588#Christmas Orc#24#1400#0#261#160#1#7#2#2#
1589#Mandragora#12#405#0#0#0#1#3#6#2#
1590#Geographer#56#8071#0#0#0#1#3#6#2#
1591#Lunatic#29#2334#0#0#0#0#2#6#0#
1592#Gangster#40#8000#0#0#0#1#7#2#0#
1593#Ancient Mummy#52#8613#0#0#0#1#1#6#9#
1594#Freezer#94#9990#0#0#0#1#2#4#1#
1595#Marin#37#987#0#0#0#1#3#4#1#
1596#Tamruan#52#10234#0#0#0#2#6#6#7#
1597#Gargoyle#48#3950#0#0#0#1#6#6#4#
1598#Blazzer#43#8252#0#0#0#1#6#4#3#
1599#Giant Whisper#66#2570#0#0#0#0#6#4#8#
1600#Heater#96#7480#0#0#0#1#2#4#3#
1601#Permeter#90#6575#0#0#0#1#2#4#0#
1602#Solider#92#8768#0#0#0#1#2#4#2#
1603#Bigfoot#29#587#0#0#0#2#2#2#2#
1604#Giant Hornet#82#3960#0#0#0#0#4#2#4#
1605#Dark Illusion#96#29255#0#0#0#2#6#8#9#
1606#Garm Baby#94#10016#0#0#0#1#2#4#1#
1607#Christmas Goblin#48#1058#0#0#0#1#7#2#4#
1608#Thief Bug Male#30#595#0#0#0#1#4#2#7#
1609#Zhu Po Long#54#9136#0#3030#769#1#9#4#4#
1610#Munak#30#2872#0#0#0#1#1#8#9#
1611#Bongun#32#3520#0#0#0#1#1#8#9#
1612#Yao Jun#56#9981#0#0#0#1#1#8#9#
1613#Metaling#81#4300#0#954#1074#0#0#2#0#
1614#Mineral#96#8300#0#1503#1127#0#0#4#0#
1615#Obsidian#97#10088#0#1652#1239#0#0#4#2#
1616#Pitman#90#7208#0#1409#1586#2#1#4#2#
1617#Old Stove#92#7400#0#1377#1548#2#0#2#0#
1618#Ungoliant#94#17070#0#3501#1913#2#4#4#5#
1619#Porcellio#85#5544#0#1294#1455#0#4#6#2#
1620#Noxious#87#5430#0#888#1785#1#0#6#8#
1621#Venomous#87#4770#0#1188#1337#1#0#2#5#
1622#Teddy Bear#91#7238#0#1350#1799#0#0#6#0#
1623#RSX-0806#100#1001000#0#720000#576000#2#0#6#0#
1624#Old Stove#92#7400#0#0#0#2#0#2#0#
1625#Porcellio#85#5544#0#0#0#0#4#6#2#
1626#Hellion Revenant#88#286900#0#1#1#1#6#6#9#
1627#Anopheles#95#7238#0#1691#1902#0#4#6#4#
1628#Holden#85#6228#0#1206#1358#0#2#4#2#
1629#Hill Wind#101#9100#0#1900#1425#1#2#6#4#
1630#White Lady#97#720500#0#668160#542880#2#7#6#4#
1631#Green Maiden#82#3901#0#1049#1481#1#7#4#4#
1632#Gremlin#118#20313#0#3091#2318#2#6#4#7#
1633#Beholder#120#19280#0#3285#2463#0#0#4#4#
1634#Seyren Windsor#142#194962#0#10386#7790#1#6#6#3#
1635#Eremes Guile#140#190525#0#10329#6846#1#6#8#5#
1636#Howard Alt-Eisen#142#348100#0#10854#7241#1#7#8#1#
1637#Margaretha Sorin#140#220800#0#9895#7421#1#7#6#6#
1638#Cecil Damon#141#190255#0#10103#7577#1#7#6#4#
1639#Kathryne Keyron#141#219780#0#9207#6905#1#7#6#8#
1640#Lord Knight Seyren#99#347590#0#18000#10000#1#7#8#3#
1641#Assassin Cross Eremes#99#211230#0#18000#10000#1#7#8#5#
1642#Whitesmith Howard#99#310000#0#18000#10000#1#7#8#1#
1643#High Priest Margaretha#99#182910#0#18000#10000#1#7#8#6#
1644#Sniper Cecil#99#209000#0#18000#10000#1#7#8#4#
1645#High Wizard Kathryne#99#189920#0#18000#10000#1#7#6#8#
1646#Lord Knight Seyren#160#4680000#0#4642560#3481920#1#7#8#3#
1647#Assassin Cross Eremes#160#4230000#0#4185000#3147120#1#7#8#5#
1648#Whitesmith Howard#160#6750000#0#3555000#2664000#1#7#8#2#
1649#High Priest Margaretha#160#4800000#0#3465000#2520000#1#7#8#6#
1650#Sniper Cecil#160#4140000#0#4106880#3080160#1#7#8#4#
1651#High Wizard Kathryne#160#4500000#0#3240000#2430000#1#7#6#8#
1652#Egnigem Cenia#136#44327#0#5229#4461#1#7#4#3#
1653#Wickebine Tres#132#43191#0#5094#4721#1#7#6#5#
1654#Armeyer Dinze#134#46878#0#4895#4909#1#7#6#2#
1655#Errende Ebecee#133#42764#0#4860#4545#1#7#4#6#
1656#Kavach Icarus#135#43079#0#5103#4276#1#7#4#4#
1657#Laurell Weinder#133#40282#0#4500#4477#1#7#4#8#
1658#Egnigem Cenia MVP#141#2910088#0#1054400#1860000#1#7#4#3#
1659#Wickebine Tres#132#43191#0#0#0#1#7#6#5#
1660#Armeyer Dinze#134#46878#0#0#0#1#7#6#2#
1661#Errende Ebecee#133#42764#0#0#0#1#7#4#6#
1662#Kavach Icarus#135#43079#0#0#0#1#7#4#4#
1663#Laurell Weinder#133#40282#0#0#0#1#7#4#8#
1664#Photon Cannon#66#8000#0#3900#1800#1#0#4#0#
1665#Photon Cannon#67#7500#0#4300#2000#1#0#4#0#
1666#Photon Cannon#64#7100#0#3100#2700#1#0#4#0#
1667#Photon Cannon#65#7800#0#3800#2300#1#0#4#0#
1668#Archdam#119#20700#0#2862#2147#2#7#6#0#
1669#Dimik#116#17552#0#0#0#1#0#4#0#
1670#Dimik#116#17552#0#2916#2187#1#0#4#4#
1671#Dimik#116#23840#0#2916#2187#1#0#4#1#
1672#Dimik#116#21920#0#2916#2187#1#0#4#2#
1673#Dimik#116#16940#0#2916#2187#1#0#4#3#
1674#Monemus#88#80000#0#0#0#2#0#6#3#
1675#Venatu#113#14717#0#0#0#1#0#4#3#
1676#Venatu#113#14717#0#2637#1980#1#0#4#0#
1677#Venatu#113#21040#0#2643#1983#1#0#4#4#
1678#Venatu#113#15900#0#2448#1836#1#0#4#2#
1679#Venatu#113#21810#0#2643#1983#1#0#4#1#
1680#Hill Wind#101#9100#0#1900#1425#1#2#6#4#
1681#Gemini-S58#135#108999#0#4725#3543#1#0#2#1#
1682#Remover#121#32235#0#3772#2829#1#1#4#9#
1683#Photon Cannon#46#7000#0#0#0#1#0#4#3#
1684#Archdam#119#20700#0#0#0#2#8#6#0#
1685#Vesper#128#3802000#0#2700000#2250000#2#2#4#6#
1686#Orc Baby#43#1122#0#315#354#0#7#2#2#
1687#Grove#55#2090#0#486#548#1#2#4#2#
1688#Lady Tanee#80#360000#0#334080#261000#2#3#6#4#
1689#White Lady#85#253221#0#45250#16445#2#7#6#4#
1690#Spring Rabbit#88#6684#0#0#0#1#2#4#2#
1691#Kraben#70#2901#0#0#0#1#0#4#8#
1692#Breeze#92#6755#0#1598#1797#1#0#6#4#
1693#Plasma#119#20600#0#2111#2882#0#0#8#8#
1694#Plasma#118#16789#0#3549#2661#0#0#8#3#
1695#Plasma#116#24975#0#3348#2511#0#0#8#2#
1696#Plasma#117#18955#0#3348#2511#0#0#8#7#
1697#Plasma#115#24651#0#3181#2384#0#0#8#1#
1698#Death Word#114#16390#0#2565#1923#1#0#6#0#
1699#Ancient Mimic#112#14700#0#2448#2069#2#0#6#0#
1700#Dame of Sentinel#127#34538#0#3735#2801#1#8#8#0#
1701#Mistress of Shelter#125#27000#0#4010#3051#1#8#6#6#
1702#Baroness of Retribution#121#22152#0#3528#2463#1#8#6#7#
1703#Lady Solace#123#24729#0#3758#2819#1#8#6#6#
1704#Odium of Thanatos#129#40200#0#3960#3666#2#1#8#8#
1705#Despero of Thanatos#129#41111#0#3960#3666#2#1#8#8#
1706#Maero of Thanatos#129#42599#0#3960#3666#1#1#8#8#
1707#Dolor of Thanatos#129#45000#0#3960#3666#0#1#8#8#
1708#Memory of Thanatos#99#1445660#0#1299400#1930554#2#6#8#8#
1709#Odium of Thanatos#129#40200#0#1000#1000#2#1#8#8#
1710#Despero of Thanatos#129#41111#0#1000#1000#2#1#8#8#
1711#Maero of Thanatos#129#42599#0#1000#1000#1#1#8#8#
1712#Dolor of Thanatos#129#45000#0#1000#1000#0#1#8#8#
1713#Acidus#130#48430#0#4520#3389#2#9#4#6#
1714#Ferus#126#25668#0#3985#2989#2#9#4#3#
1715#Novus#84#5028#0#1080#1215#0#9#2#0#
1716#Acidus#130#40718#0#4520#3389#2#9#4#4#
1717#Ferus#126#39054#0#4185#2989#2#9#4#2#
1718#Novus#90#6670#0#1305#1505#0#9#2#0#
1719#Detardeurus#135#6005000#0#4320000#3420000#2#9#6#7#
1720#Hydrolancer#121#41500#0#6285#4463#2#9#4#7#
1721#Dragon Egg#119#20990#0#2862#2147#1#9#4#0#
1722#Jakk#99#10310#0#103#100#1#0#4#3#
1723#Cecil Damon#82#30000#0#0#0#1#7#6#4#
1724#Photon Cannon#66#8000#0#0#0#1#0#4#0#
1725#Poring#1#50#0#0#0#1#3#2#1#
1726#Lunatic#3#60#0#0#0#0#2#6#0#
1727#Savage Babe#7#182#0#0#0#0#2#2#2#
1728#Baby Desert Wolf#9#164#0#0#0#0#2#2#3#
1729#Baphomet Jr.#50#8578#0#0#0#0#6#2#7#
1730#Deviruchi#46#7360#0#0#0#0#6#2#7#
1731#Doppelganger#72#12000000#0#3000000#2000000#2#8#4#8#
1732#Treasure Chest#98#0#0#0#0#0#0#2#0#
1733#Kiehl#90#523000#0#36500#23405#1#0#4#7#
1734#Kiel D-01#125#2502000#0#1800000#1440000#1#0#4#7#
1735#Alicel#115#18000#0#2565#1923#1#6#6#0#
1736#Aliot#112#15669#0#2448#1836#1#6#6#0#
1737#Aliza#112#14450#0#2448#1836#1#7#6#0#
1738#Constant#108#12050#0#2506#1879#0#0#6#7#
1739#Alicel#115#18000#0#0#0#1#6#6#0#
1740#Aliot#112#15669#0#0#0#1#6#6#0#
1741#Christmas Cookie#28#2090#0#0#0#0#7#4#6#
1742#Carat#103#9222#0#0#0#1#6#4#4#
1743#Myst Case#39#879#0#0#0#1#0#6#0#
1744#Wild Rose#70#2682#0#0#0#0#2#2#4#
1745#Constant#55#1000#0#0#0#0#6#6#7#
1746#Aliza#69#15000#0#0#0#1#7#6#0#
1747#Boa#15#471#0#0#0#1#2#2#2#
1748#Anacondaq#23#1109#0#0#0#1#2#2#5#
1749#Medusa#102#10045#0#0#0#1#6#4#0#
1750#Red Plant#1#100#0#0#0#0#3#2#2#
1751#Valkyrie Randgris#141#2205000#0#2000000#2200000#2#8#8#6#
1752#Skogul#126#34240#0#4280#3210#1#6#6#7#
1753#Frus#128#39520#0#4562#3421#1#6#6#7#
1754#Skeggiold#131#53290#0#5552#4419#0#8#4#6#
1755#Skeggiold#131#52280#0#5549#4411#0#8#4#6#
1756#Hydrolancer#121#41500#0#0#0#2#9#4#7#
1757#Acidus#130#48430#0#0#0#2#9#4#6#
1758#Ferus#126#25668#0#0#0#2#9#4#3#
1759#Acidus#130#40718#0#0#0#2#9#4#4#
1760#Ferus#126#39054#0#0#0#2#9#4#2#
1761#Skogul#126#34240#0#0#0#1#6#6#7#
1762#Frus#128#39520#0#0#0#1#6#6#7#
1763#Skeggiold#131#100200#0#0#0#0#8#4#6#
1764#Skeggiold#131#103000#0#0#0#0#8#4#6#
1765#Valkyrie#141#1005000#0#10000#10000#2#8#8#6#
1766#Angeling#99#128430#0#0#0#0#8#6#6#
1767#Deviling#99#128430#0#0#0#0#8#6#6#
1768#Gloom Under Night#139#3005000#0#2160000#1800000#2#0#6#8#
1769#Agav#128#40000#0#3933#2949#1#7#8#0#
1770#Echio#126#31620#0#3690#2768#1#7#8#0#
1771#Vanberk#123#24605#0#3240#2430#1#7#8#0#
1772#Isilla#124#26324#0#3456#2592#1#7#8#0#
1773#Hodremlin#122#23182#0#3758#2819#1#6#6#7#
1774#Seeker#124#24500#0#4009#3006#0#0#6#4#
1775#Snowier#103#13934#0#1944#1458#2#0#4#1#
1776#Siroma#98#11910#0#1827#1369#0#0#6#1#
1777#Ice Titan#110#20820#0#2724#2644#2#0#6#1#
1778#Gazeti#106#14000#0#2025#1518#1#6#2#1#
1779#Ktullanux#98#2626000#0#1035576#949942#2#2#8#1#
1780#Muscipular#105#12550#0#1944#1458#1#3#2#2#
1781#Drosera#101#10878#0#1350#1013#1#3#2#2#
1782#Roween#95#7385#0#1691#1902#1#2#2#4#
1783#Galion#100#8821#0#1769#1327#1#2#4#4#
1784#Stapo#95#8805#0#1574#1772#0#0#4#2#
1785#Atroce#113#1502000#0#1080000#855000#2#2#6#7#
1786#Agav#128#40000#0#0#0#1#7#4#0#
1787#Echio#126#31620#0#0#0#1#7#4#0#
1788#Ice Titan#110#20820#0#0#0#2#0#6#1#
1789#Iceicle#100#1012#0#164#122#0#0#4#1#
1790#Rafflesia#17#1333#0#0#0#0#3#2#2#
1791#Galion#100#8821#0#0#0#1#2#4#4#
1792#Soccer Ball#1#1000#0#0#0#0#0#2#0#
1793#Megalith#65#2451#0#0#0#2#0#8#0#
1794#Roween#95#7385#0#0#0#1#2#2#4#
1795#Bloody Knight#82#800000#0#0#0#2#8#2#8#
1796#Aunoe#110#13050#0#1935#1454#1#7#8#0#
1797#Fanat#120#21000#0#3042#2282#1#7#8#0#
1798#Treasure Chest#99#0#0#0#0#0#0#2#0#
1799#Lord Knight Seyren#99#347590#0#18000#10000#1#7#8#3#
1800#Assassin Cross Eremes#99#211230#0#18000#10000#1#7#8#5#
1801#Mastersmith Howard#99#310000#0#18000#10000#1#7#8#1#
1802#High Priest Margaretha#99#182910#0#18000#10000#1#7#8#6#
1803#Sniper Cecil#99#209000#0#18000#10000#1#7#8#4#
1804#High Wizard Kathryne#99#189920#0#18000#10000#1#7#6#8#
1805#Lord Knight Seyren#99#1647590#0#4835600#1569970#1#7#8#3#
1806#Assassin Cross Eremes#99#1411230#0#4083400#1592380#1#7#8#5#
1807#Mastersmith Howard#99#1460000#0#4002340#1421000#1#7#8#2#
1808#High Priest Margaretha#99#1092910#0#4257000#1318800#1#7#8#6#
1809#Sniper Cecil#99#1349000#0#4093000#1526000#1#7#8#4#
1810#High Wizard Kathryne#99#1069920#0#4008200#1636700#1#7#6#8#
1811#Bandit#18#641#0#0#0#0#2#2#2#
1812#Delightful Lude#99#15#0#0#0#0#0#2#0#
1813#Hydrolancer#99#1880000#0#4000000#2000000#2#8#2#8#
1814#Moonlight Flower#80#30000#0#30000#30000#1#2#6#3#
1815#Rice Cake#12#20#0#0#0#1#0#2#0#
1816#Gourd#12#1000#0#0#0#1#0#2#0#
1817#Detarderous#99#8880000#0#4500000#2500000#2#8#4#8#
1818#Alarm#58#10647#0#0#0#1#0#6#0#
1819#Bathory#44#5415#0#0#0#1#7#2#7#
1820#Bigfoot#25#1619#0#0#0#2#2#2#2#
1821#Desert Wolf#27#1716#0#0#0#1#2#2#3#
1822#Deviruchi#46#6666#0#0#0#0#6#2#7#
1823#Freezer#72#8636#0#0#0#1#2#4#1#
1824#Garm Baby#61#20199#0#0#0#1#2#4#1#
1825#Christmas Goblin#25#1176#0#0#0#1#7#2#4#
1826#Myst#38#3745#0#0#0#2#0#2#5#
1827#Sasquatch#30#3163#0#0#0#2#2#6#0#
1828#Gullinbrusti#20#20#0#0#0#2#2#4#2#
1829#Sword Master#133#70000#0#4500#3375#2#7#8#0#
1830#Bow Master#132#63000#0#4392#3294#2#7#8#0#
1831#Salamander#138#80390#0#5919#7139#2#0#6#3#
1832#Ifrit#146#6935000#0#6696000#4860000#2#0#8#3#
1833#Kasa#135#70128#0#5599#7709#2#0#6#3#
1834#Salamander#138#80390#0#0#0#2#0#6#3#
1835#Kasa#135#70128#0#0#0#2#0#6#3#
1836#Magmaring#110#13079#0#2536#1903#0#0#4#3#
1837#Fire Imp#129#36830#0#4594#3445#0#6#6#3#
1838#Knocker#126#43900#0#3690#3768#0#6#2#2#
1839#Byorgue#135#92544#0#7725#5543#1#7#2#0#
1840#Golden Savage#99#500#0#1#1#2#2#4#2#
1841#Snake Lord's Minion#15#10#0#1#1#1#2#2#2#
1842#Snake Lord's Minion#23#15#0#1#1#1#2#2#5#
1843#Snake Lord's Minion#43#18#0#1#1#1#2#2#5#
1844#Snake Lord's Minion#47#25#0#1#1#2#6#2#7#
1845#Treasure Box#98#0#0#0#0#0#0#2#0#
1846#Dream Metal#90#999#0#1#1#0#0#2#6#
1847#Poring#98#10000000#0#1000000#1000000#1#8#2#8#
1848#Baphomet#50#45000#0#1000#1000#2#6#6#7#
1849#Osiris#60#125000#0#2000#2000#1#1#8#9#
1850#Orc Hero#50#175000#0#3000#3000#2#7#8#2#
1851#Mobster#58#2253#0#2#2#1#7#2#0#
1852#Angeling#99#120#0#0#0#0#8#6#6#
1853#Deviling#99#120#0#0#0#0#8#6#6#
1854#Muka#17#610#0#273#120#2#3#2#2#
1855#Poison Spore#19#665#0#186#93#1#3#2#5#
1856#Magnolia#26#3195#0#393#248#0#6#2#1#
1857#Marin#15#742#0#66#44#1#3#4#1#
1858#Plankton#10#354#0#23#18#0#3#6#1#
1859#Mandragora#12#405#0#45#32#1#3#6#2#
1860#Coco#17#817#0#120#78#0#2#2#2#
1861#Choco#43#4278#0#1265#1265#0#2#2#3#
1862#Martin#18#1109#0#134#86#0#2#4#2#
1863#Spring Rabbit#25#4500#0#0#0#1#2#4#2#
1864#Zombie Slaughter#124#40440#0#3938#2702#1#1#6#9#
1865#Ragged Zombie#123#38574#0#3515#3087#1#1#6#9#
1866#Hell Poodle#115#17168#0#2565#1923#0#6#2#7#
1867#Banshee#130#48666#0#4520#3500#1#6#4#7#
1868#Banshee#130#48666#0#0#0#1#6#4#7#
1869#Flame Skull#121#21276#0#2332#2890#0#6#6#8#
1870#Necromancer#133#91304#0#5580#4185#1#1#8#9#
1871#Fallen Bishop Hibram#138#5655000#0#2700000#1890000#1#6#4#7#
1872#Hell Fly#127#502000#0#0#0#0#4#8#4#
1873#Beelzebub#147#6805000#0#0#0#0#6#8#8#
1874#Beelzebub#147#4805000#0#7050000#7050000#2#6#8#8#
1875#Dead King#80#43000#0#1#1#1#1#8#9#
1876#Lord of the Dead#99#99000000#0#131343#43345#2#6#6#7#
1877#Crystal#1#15#0#0#0#0#0#2#0#
1878#Shining Plant#1#20#0#0#0#0#3#2#6#
1879#Eclipse#6#1800#0#0#0#1#2#6#0#
1880#Wood Goblin#81#5499#0#1106#1245#1#3#6#2#
1881#Les#82#6216#0#1205#1356#1#3#8#2#
1882#Baba Yaga#87#6498#0#1188#1337#1#7#2#1#
1883#Uzhas#85#7140#0#1294#1455#1#7#6#1#
1884#Mavka#84#5421#0#1253#1530#1#3#6#2#
1885#Gopinich#97#1120500#0#714240#580320#2#2#6#2#
1886#Mavka#84#5421#0#0#0#1#3#6#2#
1887#Freezer#72#8636#0#0#0#1#2#4#1#
1888#Hatii Baby#61#15199#0#100#100#1#2#4#1#
1889#Marozka's Guard#73#100000#0#1000#1000#2#2#8#1#
1890#The Immortal Koshei#85#299321#0#1000#1000#2#2#6#2#
1891#Valkyrie#99#1005000#0#0#0#2#8#8#6#
1892#Lolo Ruri#71#23470#0#0#0#2#6#8#7#
1893#Abysmal Knight#79#36140#0#0#0#2#7#8#7#
1894#Pouring#50#100000#0#0#0#0#3#6#8#
1895#Seyren Windsor#91#88402#0#0#0#1#6#6#3#
1896#Kathryne Keyron#92#47280#0#0#0#1#7#6#8#
1897#Baphomet#81#668000#0#0#0#2#6#6#7#
1898#Zombie#12#434#0#0#0#1#1#2#9#
1899#Sword Guardian#86#152533#0#0#0#2#7#8#0#
1901#Condor#5#8000#0#100#100#0#8#2#6#
1902#Treasure Box#99#49#0#0#0#0#0#2#6#
1903#Treasure Box#99#49#0#0#0#0#0#2#6#
1904#Bomb Poring#28#1000000#0#461#284#0#0#2#0#
1905#Barricade#98#120000#0#0#0#2#0#2#0#
1906#Barricade#98#150#0#0#0#2#0#2#0#
1907#Guardian Stone#90#120000#0#0#0#0#0#2#0#
1908#Guardian Stone#90#120000#0#0#0#0#0#2#0#
1909#Food Storage#90#250#0#0#0#2#0#2#0#
1910#Food Depot#90#250#0#0#0#2#0#2#0#
1911#Neutrality Flag#90#150#0#0#0#2#0#2#0#
1912#Lion Flag#90#150#0#0#0#2#0#2#0#
1913#Eagle Flag#90#150#0#0#0#2#0#2#0#
1914#Blue Crystal#90#250#0#0#0#2#0#2#0#
1915#Pink Crystal#90#250#0#0#0#2#0#2#0#
1916#Satan Morroc#151#7000000#0#0#0#2#6#8#7#
1917#Wounded Morroc#151#5000000#0#4050000#3042000#2#6#8#7#
1918#Incarnation of Morroc#132#63900#0#4392#3294#2#8#2#7#
1919#Incarnation of Morroc#132#64922#0#5094#3821#1#6#6#7#
1920#Incarnation of Morroc#133#94800#0#5220#3780#1#6#6#9#
1921#Incarnation of Morroc#134#77389#0#4608#4056#1#6#6#8#
1922#Incarnation of Morroc#132#63900#0#0#0#2#8#2#7#
1923#Incarnation of Morroc#132#64922#0#0#0#1#6#6#7#
1924#Incarnation of Morroc#133#94800#0#0#0#1#6#6#9#
1925#Incarnation of Morroc#134#77389#0#0#0#1#6#6#8#
1926#Jakk#38#300#0#0#0#1#0#4#3#
1927#Whisper#34#100#0#0#0#0#6#6#8#
1928#Deviruchi#46#500#0#0#0#0#6#2#7#
1929#Great Demon Baphomet#98#4520500#0#4068000#2268000#2#6#6#7#
1930#Piamette#90#3000500#0#0#0#0#7#2#0#
1931#Wish Maiden#98#3567200#0#0#0#2#8#2#8#
1932#Garden Keeper#80#100#0#0#0#0#0#4#2#
1933#Garden Watcher#81#300000#0#0#0#1#8#8#0#
1934#Blue Flower#98#10000#0#0#0#1#3#2#2#
1935#Red Flower#98#10000#0#0#0#1#3#2#2#
1936#Yellow Flower#98#10000#0#0#0#1#3#2#2#
1937#Constant#108#12050#0#2506#1879#0#0#6#7#
1938#Treasure Chest#99#0#0#0#0#0#0#2#0#
1939#Treasure Chest#99#0#0#0#0#0#0#2#0#
1940#Treasure Chest#99#0#0#0#0#0#0#2#0#
1941#Treasure Chest#99#0#0#0#0#0#0#2#0#
1942#Treasure Chest#99#0#0#0#0#0#0#2#0#
1943#Treasure Chest#99#0#0#0#0#0#0#2#0#
1944#Treasure Chest#99#0#0#0#0#0#0#2#0#
1945#Treasure Chest#99#0#0#0#0#0#0#2#0#
1946#Treasure Chest#99#0#0#0#0#0#0#2#0#
1947#Piamette#90#500000#0#0#0#0#7#2#0#
1948#Egnigem Cenia#58#11200#0#0#0#1#7#4#3#
1949#Camp Guardian#133#70000#0#0#0#2#7#8#0#
1950#Camp Guardian#132#63000#0#0#0#2#7#8#0#
1951#Crystal#1#15#0#0#0#0#0#2#0#
1952#Crystal#1#15#0#0#0#0#0#2#0#
1953#Crystal#1#15#0#0#0#0#0#2#0#
1954#Crystal#1#15#0#0#0#0#0#2#0#
1955#Treasure Chest#99#0#0#0#0#0#0#2#0#
1956#Naght Sieger#99#5000000#0#3600000#1800000#2#6#8#8#
1957#Entweihen Crothen#90#2400500#0#1430000#1215000#1#6#8#7#
1958#Thorny Skeleton#89#5400000#0#0#0#0#6#8#7#
1959#Thorn of Recovery#89#350000#0#0#0#0#6#8#8#
1960#Thorn of Magic#89#5400000#0#0#0#0#6#8#7#
1961#Thorn of Purification#89#5400000#0#0#0#0#6#8#7#
1962#Christmas Thief#10#15#0#0#0#1#7#2#0#
1963#New Year Doll#49#23900#0#2396#993#1#7#4#0#
1964#Nightmare#30#2000#0#512#387#2#2#6#8#
1965#Wild Rose#38#4000#50#0#0#0#2#2#4#
1966#Doppelganger#72#7800#200#0#0#1#6#6#7#
1967#Egnigem Cenia#79#7800#200#0#0#1#7#4#3#
1968#Strouf#48#11990#0#6160#4196#2#5#6#1#
1969#Marc#36#6900#0#1976#1250#1#5#4#1#
1970#Obeune#31#3952#0#1288#814#1#5#4#1#
1971#Vadon#19#1017#0#270#170#0#5#2#1#
1972#Marina#21#2087#0#436#280#0#3#4#1#
1973#Poring#1#50#0#2#1#1#3#2#1#
1974#Banshee Master#118#20320#0#3402#2556#1#6#4#7#
1975#Beholder Master#106#10135#0#2430#1845#1#0#4#4#
1976#Cobalt Mineral#113#15800#0#2700#2070#1#0#4#0#
1977#Heavy Metaling#107#11500#0#2610#1980#0#0#2#0#
1978#Hell Apocalypse#121#22100#0#3348#3020#2#0#6#0#
1979#Zukudam#115#17200#0#2880#2160#2#7#4#0#
1980#Kublin#85#633600#0#90000#90000#1#7#2#2#
1981#Safeguard Chief#88#111111#0#3618#1639#2#7#4#3#
1982#Orc Sniper#85#62000#0#1729#1787#1#7#2#2#
1983#Depraved Orc Spirit#87#80087#0#4501#67#1#1#2#9#
1984#Shaman Cargalache#58#50058#0#4870#98#1#7#4#2#
1985#Dandelion Member#37#5176#0#0#0#1#7#4#7#
1986#Tatacho#128#33336#0#3762#3092#1#2#2#2#
1987#Centipede#125#24992#0#3201#2711#1#4#4#5#
1988#Nepenthes#114#15099#0#2599#1793#1#3#4#5#
1989#Hillthrion#123#21422#0#2909#1698#0#2#2#2#
1990#Hardrock Mammoth#137#1900944#0#142293#81178#2#2#6#2#
1991#Tendril Lion#126#1397451#0#100772#75299#2#2#4#2#
1992#Cornus#120#20722#0#6240#4004#1#2#6#6#
1993#Naga#117#21099#0#2944#2212#1#2#4#2#
1994#Luciola Vespa#109#12466#0#1622#1806#1#4#2#4#
1995#Pinguicula#105#13058#0#2221#1662#0#3#6#2#
1996#Bacsojin#85#253221#0#0#0#2#7#6#4#
1997#Tatacho#128#33336#0#0#0#1#2#2#2#
1998#Hillthrion#123#21422#0#0#0#0#2#2#2#
1999#Centipede Larva#118#20667#0#2930#2003#0#4#4#5#
2002#Talisman Ghost#0#0#0#0#0#0#0#0#0#
2003#Talisman Ghost#0#0#0#0#0#0#0#0#0#
2004#Talisman Ghost#0#0#0#0#0#0#0#0#0#
2008#Woomawang#1#50#0#0#0#1#3#2#1#
2009#Woomawang#1#50#0#0#0#1#3#2#1#
2010#Ox#1#50#0#0#0#1#3#2#1#
2013#Draco#114#20099#0#2000#1500#1#9#2#2#
2014#Draco Egg#101#100000#0#2000#1500#1#9#8#2#
2015#Dark Pinguicula#113#17002#0#2101#2419#0#3#4#5#
2016#Aqua Elemental#121#33209#0#4155#4155#2#0#8#1#
2017#Rata#131#58299#0#7787#6119#1#7#6#2#
2018#Duneyrr#135#63342#0#8601#7298#2#7#6#2#
2019#Ancient Tree#144#388933#0#7308#5481#2#3#6#2#
2020#Rhyncho#139#337220#0#6107#4579#1#0#6#1#
2021#Phylla#139#345560#0#6107#4579#1#0#6#1#
2022#Nidhoggr's Shadow#117#3452000#0#4320000#3510000#2#9#8#7#
2023#Dark Shadow#147#434300#0#7630#5721#0#0#8#7#
2024#Bradium Golem#133#45739#0#6553#3595#2#0#4#2#
2026#Runaway Dandelion Member#90#552500#0#45000#22450#1#7#8#0#
2027#Dark Shadow#147#434300#0#0#0#0#0#8#7#
2034#Desert Wolf Baby #0#0#0#0#0#0#0#0#0#
2038#Valkyrie#0#0#0#0#0#0#0#0#0#
2047#Naga#99#46708#0#0#0#1#2#4#2#
2049#Bradium Golem#99#45200#0#0#0#2#0#4#2#
2057#Cramp#82#3898#0#0#0#0#2#4#5#
2058#Mimic#0#0#0#0#0#0#0#0#0#
2060#Alice#0#0#0#0#0#0#0#0#0#
2068#Boitata#93#1283990#0#74288#77950#2#2#6#3#
2069#Iara#79#5890#0#1070#890#1#5#6#1#
2070#Piranha#75#4522#0#889#1023#2#5#6#1#
2071#Headless Mule#80#6620#0#1011#1120#2#6#6#3#
2072#Jaguar#71#3914#0#720#512#1#2#4#2#
2073#Toucan#70#3640#0#659#544#1#2#4#4#
2074#Curupira#68#3096#0#622#450#1#7#2#2#
2076#Shadow of Deception#0#0#0#0#0#0#0#0#0#
2078#Shadow of Pleasure#0#0#0#0#0#0#0#0#0#
2082#Piranha#75#4522#0#0#0#2#5#6#1#
2083#One-Horn Scaraba#130#51100#0#5220#4011#0#4#2#2#
2084#Two-Horn Scaraba#134#58900#0#5780#4549#0#4#2#2#
2085#Antler Scaraba#136#62600#0#6330#5225#1#4#4#2#
2086#Rake Scaraba#139#67700#0#6990#5995#1#4#4#2#
2087#Queen Scaraba#140#2441600#0#410220#212200#2#4#6#2#
2088#One-Horn Scaraba Egg#125#63000#0#4000#3000#0#4#2#0#
2089#Two-Horn Scaraba Egg#126#66000#0#4000#3000#0#4#2#0#
2090#Antler Scaraba Egg#127#69000#0#4000#3000#0#4#2#0#
2091#Rake Scaraba Egg#128#72000#0#4000#3000#0#4#2#0#
2092#Dolomedes#132#54591#0#5155#5155#2#4#6#4#
2093#Botaring#1#50#0#0#0#1#3#2#1#
2114#Agni#1#50#0#2#1#1#3#2#1#
2115#Agni#1#50#0#2#1#1#3#2#1#
2116#Agni#1#50#0#2#1#1#3#2#1#
2117#Aqua#1#50#0#2#1#1#3#2#1#
2118#Aqua#1#50#0#2#1#1#3#2#1#
2119#Aqua#1#50#0#2#1#1#3#2#1#
2120#Ventus#1#50#0#2#1#1#3#2#1#
2121#Ventus#1#50#0#2#1#1#3#2#1#
2122#Ventus#1#50#0#2#1#1#3#2#1#
2123#Tera#1#50#0#2#1#1#3#2#1#
2124#Tera#1#50#0#2#1#1#3#2#1#
2125#Tera#1#50#0#2#1#1#3#2#1#
2131#Lost Dragon#135#608920#0#30000#30000#2#9#6#7#
2132#Pom Spider#145#122110#0#8250#8500#1#4#8#4#
2133#Angra Mantis#144#91720#0#7790#7020#1#4#6#4#
2134#Parus#142#86990#0#7310#6990#0#2#6#2#
2135#Creeper#100#1000#0#0#0#0#0#2#0#
2136#Little Fatum#142#85100#0#7500#6500#0#7#6#4#
2137#Miming#140#81200#0#7100#6310#0#0#2#0#
2138#Nydhoggur Memory#130#10#0#0#0#0#0#2#0#
2139#Nydhoggur Memory#130#10#0#0#0#0#0#2#0#
2140#Nydhoggur Memory#130#10#0#0#0#0#0#2#0#
2141#Nydhoggur Memory#130#10#0#0#0#0#0#2#0#
2142#Nydhoggur Memory#130#10#0#0#0#0#0#2#0#
2143#Nydhoggur Memory#130#10#0#0#0#0#0#2#0#
2144#Antler Scaraba#136#62600#0#0#0#1#4#4#2#
2145#Rake Scaraba#139#67700#0#0#0#1#4#4#2#
2150#Watermelon#12#10#0#0#0#1#3#2#1#
2151#Alnoldi#80#5149#0#1399#1280#1#3#2#2#
2152#Comodo#81#4002#0#1072#1581#1#2#6#5#
2153#Cendrawasih#84#5556#0#2612#2687#1#8#2#3#
2154#Banaspaty#85#4680#0#1164#1688#0#0#6#3#
2155#Butoijo#88#7524#0#1355#1752#2#6#4#3#
2156#Leak#94#1265288#0#90000#90000#2#6#4#7#
2157#Banaspaty#85#4680#0#0#0#0#0#6#3#
2161#Horn scaraba#0#0#0#0#0#0#0#0#0#
2162#Double horn scaraba#0#0#0#0#0#0#0#0#0#
2163#Antler scaraba#0#0#0#0#0#0#0#0#0#
2164#Rake scaraba#0#0#0#0#0#0#0#0#0#
2165#Queen scaraba#0#0#0#0#0#0#0#0#0#
2166#Horn scaraba egg#0#0#0#0#0#0#0#0#0#
2167#Double horn scaraba egg#0#0#0#0#0#0#0#0#0#
2168#Antler scaraba egg#0#0#0#0#0#0#0#0#0#
2169#Rake scaraba egg#0#0#0#0#0#0#0#0#0#
2210#Christmas Snow Rabbit#0#0#0#0#0#0#0#0#0#
2211#Christmas Teddy Bear#0#0#0#0#0#0#0#0#0#
2248#Golden Poring#0#0#0#0#0#0#0#0#0#
2344#Wish Maiden#0#0#0#0#0#0#0#0#0#
2345#Zherlthsh#0#0#0#0#0#0#0#0#0#
2379#Raccoon socks hurray#0#0#0#0#0#0#0#0#0#
2380#Raccoon gift hurray#0#0#0#0#0#0#0#0#0#
2183#Mutant Anolian#0#0#0#0#0#0#0#0#0#
2181#Ancient Sword Fish#0#0#0#0#0#0#0#0#0#
2185#Metamorphous Kapha#0#0#0#0#0#0#0#0#0#
2184#Abysmal Obeaune#0#0#0#0#0#0#0#0#0#
2191#Contaminated Seaweed#0#0#0#0#0#0#0#0#0#
2180#Ancient Strouf#0#0#0#0#0#0#0#0#0#
2182#Ancient Marc#0#0#0#0#0#0#0#0#0#
2178#Abysmal Shellfish#0#0#0#0#0#0#0#0#0#
2175#Abysmal Marse#0#0#0#0#0#0#0#0#0#
2176#Abysmal Crab#0#0#0#0#0#0#0#0#0#
2177#Abysmal Cornutus#0#0#0#0#0#0#0#0#0#
2174#Ancient Vadon#0#0#0#0#0#0#0#0#0#
2179#Ancient Kukre#0#0#0#0#0#0#0#0#0#
2187#Glommy Coelacanth#0#0#0#0#0#0#0#0#0#
2195#Ancient Kukre#0#0#0#0#0#0#0#0#0#
2188#Weird Coelacanth#0#0#0#0#0#0#0#0#0#
2190#Violence Coelacanth#0#0#0#0#0#0#0#0#0#
2196#Ancient Sea Lord#0#0#0#0#0#0#0#0#0#
2189#Mutant Coelacanth#0#0#0#0#0#0#0#0#0#
