
#########################################################################
# format:	<present map> <map is going to> <0 1 2> <[min block to stop tele] | [Block scope]>
#########################################################################
# 
# 
# 		:0 =  walk
#		 1 =  tele
#		 2 =  Block Scope


