
shop_title OBB / Pantie
shop_autoStart 0
shop_start_idle 5
shop_start_wait 1
shop_close_time 0
shop_close_sold_out 0
shop_look 4

#------------------------------------------------------
#Shop Details
#------------------------------------------------------

shop Pantie {
quantity 11
price 9000
}

shop Old Blue Box {
quantity 11
price 100000
}
